<svg xmlns="http://www.w3.org/2000/svg" width="100" height="126.514" viewBox="0 0 100 126.514">
  <g id="rubbish-bin_1_" data-name="rubbish-bin (1)" transform="translate(-81.133)">
    <g id="Group_262" data-name="Group 262" transform="translate(81.133)">
      <path id="Path_182" data-name="Path 182" d="M172.508,14.9H155.616V3.92A3.925,3.925,0,0,0,151.625,0a.6.6,0,0,0-.427.143A.543.543,0,0,0,150.912,0H110.641a3.865,3.865,0,0,0-3.92,3.92V14.9H89.758a8.519,8.519,0,0,0-8.625,8.625V37.634h7.484v80.327a8.4,8.4,0,0,0,8.553,8.553H165.1a8.459,8.459,0,0,0,8.624-8.553V37.634h7.413V23.522A8.52,8.52,0,0,0,172.508,14.9ZM114.561,7.84H147.7V14.9H114.561Zm51.248,110.121c0,.5-.214.713-.713.713H97.17c-.5,0-.713-.213-.713-.713V37.634h69.351Zm7.413-88.167H89.044V23.522c0-.5.214-.785.713-.785h82.751c.5,0,.713.286.713.785Z" transform="translate(-81.133)" fill="#414141"/>
      <rect id="Rectangle_240" data-name="Rectangle 240" width="7.911" height="64.86" transform="translate(64.362 46.829)" fill="#414141"/>
      <rect id="Rectangle_241" data-name="Rectangle 241" width="7.911" height="64.86" transform="translate(46.116 46.829)" fill="#414141"/>
      <rect id="Rectangle_242" data-name="Rectangle 242" width="7.911" height="64.86" transform="translate(27.869 46.829)" fill="#414141"/>
    </g>
  </g>
</svg>
