<svg xmlns="http://www.w3.org/2000/svg" width="98.341" height="88.232" viewBox="0 0 98.341 88.232">
  <g id="Group_642" data-name="Group 642" transform="translate(-87.446 -197.884)">
    <g id="return" transform="translate(88.148 199.304)">
      <g id="Group_641" data-name="Group 641" transform="translate(0 0)">
        <path id="Path_161" data-name="Path 161" d="M54.736,32.5A42.466,42.466,0,0,0,13.155,66.633L5.095,56.557,0,60.635,13.047,76.943a3.268,3.268,0,0,0,4.005.881l19.571-9.785L33.7,62.2,19.323,69.392a35.861,35.861,0,1,1,35.413,41.392v6.523a42.4,42.4,0,0,0,0-84.806Z" transform="translate(0 -32.502)" fill="#fff" stroke="#fff" stroke-width="1"/>
      </g>
    </g>
    <line id="Line_19" data-name="Line 19" x2="72" y2="85" transform="translate(108.5 199.5)" fill="none" stroke="#fff" stroke-width="5"/>
  </g>
</svg>
